Projekt2/Implementierung/ALU.vcd
$date
  Sat Jun 16 01:29:53 2018
$end
$version
  GHDL v0
$end
$timescale
  1 fs
$end
$var reg 16 ! r_in[15:0] $end
$var reg 16 " s_in[15:0] $end
$var reg 16 # f_out[15:0] $end
$var reg 3 $ op[2:0] $end
$var reg 1 % carry_in $end
$var reg 1 & clk $end
$var reg 1 ' ce $end
$var reg 1 ( carry_out $end
$var reg 1 ) sign $end
$var reg 1 * zero $end
$scope module alu_map $end
$var reg 16 + r_in[15:0] $end
$var reg 16 , s_in[15:0] $end
$var reg 3 - op[2:0] $end
$var reg 1 . carry_in $end
$var reg 1 / clk $end
$var reg 1 0 ce $end
$var reg 16 1 f_out[15:0] $end
$var reg 1 2 carry_out $end
$var reg 1 3 sign $end
$var reg 1 4 zero $end
$var reg 17 5 temp[16:0] $end
$upscope $end
$enddefinitions $end
#0
bUUUUUUUUUUUUUUUU !
bUUUUUUUUUUUUUUUU "
b0000000000000000 #
bUUU $
U%
U&
U'
0(
0)
1*
bUUUUUUUUUUUUUUUU +
bUUUUUUUUUUUUUUUU ,
bUUU -
U.
U/
U0
b0000000000000000 1
02
03
14
b00000000000000000 5
#10000000
b0001100000010010 !
b0000011011110010 "
b000 $
0%
0&
1'
b0001100000010010 +
b0000011011110010 ,
b000 -
0.
0/
10
#20000000
b0001111100000100 #
1&
0*
1/
b0001111100000100 1
04
b00001111100000100 5
#30000000
b1001001000111010 !
b1010000101111000 "
1%
0&
b1001001000111010 +
b1010000101111000 ,
1.
0/
#40000000
b0011001110110011 #
1&
1(
1/
b0011001110110011 1
12
b10011001110110011 5
#50000000
b1100001001111001 !
b0100110111101110 "
b001 $
0&
b1100001001111001 +
b0100110111101110 ,
b001 -
0/
#60000000
b1000101101110101 #
1&
1)
1/
b1000101101110101 1
13
b11000101101110101 5
#70000000
b0101101110000110 !
b0101101110000110 "
0&
b0101101110000110 +
b0101101110000110 ,
0/
#80000000
b0000000000000000 #
1&
0(
0)
1*
1/
b0000000000000000 1
02
03
14
b00000000000000000 5
#90000000
b0000100010110000 !
b0000000111010010 "
b010 $
0%
0&
0'
b0000100010110000 +
b0000000111010010 ,
b010 -
0.
0/
00
#100000000
1&
1/
#110000000
0&
1'
0/
10
#120000000
b0000011011011101 #
1&
0*
1/
b0000011011011101 1
04
b00000011011011101 5
#130000000
b1100010111011000 !
b0100100011011100 "
b011 $
0&
b1100010111011000 +
b0100100011011100 ,
b011 -
0/
#140000000
b1100110111011100 #
1&
1/
b1100110111011100 1
b01100110111011100 5
#150000000
b1110001001001010 !
b1101111000001011 "
b100 $
1%
0&
b1110001001001010 +
b1101111000001011 ,
b100 -
1.
0/
#160000000
b1100001000001010 #
1&
1/
b1100001000001010 1
b01100001000001010 5
#170000000
b0011101010110100 !
b1100010101001011 "
0%
0&
b0011101010110100 +
b1100010101001011 ,
0.
0/
#180000000
b0000000000000000 #
1&
1*
1/
b0000000000000000 1
14
b00000000000000000 5
#190000000
b0111001011000000 !
b1011001110010111 "
b101 $
0&
b0111001011000000 +
b1011001110010111 ,
b101 -
0/
#200000000
b1000000100010111 #
1&
0*
1/
b1000000100010111 1
04
b01000000100010111 5
#210000000
b1111011101100010 !
b1111011101100010 "
b110 $
0&
b1111011101100010 +
b1111011101100010 ,
b110 -
0/
#220000000
b0000000000000000 #
1&
1*
1/
b0000000000000000 1
14
b00000000000000000 5
#230000000
b1000100101011100 !
b0000011101001110 "
1%
0&
b1000100101011100 +
b0000011101001110 ,
1.
0/
#240000000
b1000111000010010 #
1&
0*
1/
b1000111000010010 1
04
b01000111000010010 5
#250000000
b1111001101000010 !
b1000010101000110 "
b111 $
0&
b1111001101000010 +
b1000010101000110 ,
b111 -
0/
#260000000
b1000100111111011 #
1&
1/
b1000100111111011 1
b11000100111111011 5
#270000000
bXXXX10XXXXXX0110 !
b0010111010011100 "
b0000000000000000 #
b000 $
0%
0&
0(
0)
1*
bXXXX10XXXXXX0110 +
b0010111010011100 ,
b000 -
0.
0/
b0000000000000000 1
02
03
14
b00000000000000000 5
#280000000
1&
1/
#290000000
b1111100100011000 !
0&
U'
b1111100100011000 +
0/
U0
#300000000
1&
1/
#310000000
Z&
1'
Z/
10
#320000000
#330000000
W%
0&
W.
0/
#340000000
1&
1/
#350000000
b00L $
1%
0&
b00L -
1.
0/
